{
	"info": {
		"_postman_id": "5e289403-8b10-48e9-9427-6e9d97042d02",
		"name": "Accounts-Tests",
		"schema": "https://schema.getpostman.com/json/collection/v2.1.0/collection.json",
		"_uid": "16863310-5e289403-8b10-48e9-9427-6e9d97042d02"
	},
	"item": [
		{
			"name": "accounts",
			"item": [
				{
					"name": "{account Number}",
					"item": [
						{
							"name": "statement",
							"item": [
								{
									"name": "Date",
									"event": [
										{
											"listen": "test",
											"script": {
												"id": "54a8ddbc-ae4d-45b5-b55f-f4758abdc7ee",
												"exec": [
													"pm.test(\"Status code is 200\", function () {",
													"    pm.response.to.have.status(200);",
													"});",
													""
												],
												"type": "text/javascript"
											}
										}
									],
									"id": "45cf9b71-6255-48fc-b497-7e95f0154444",
									"protocolProfileBehavior": {
										"disableBodyPruning": true
									},
									"request": {
										"method": "GET",
										"header": [
											{
												"key": "Content-Type",
												"value": "application/form-urlencoded"
											},
											{
												"key": "Accept",
												"value": "text/plain"
											}
										],
										"body": {
											"mode": "raw",
											"raw": "{\n  \"from\": \"{{$randomDatePast}}\",\n  \"to\": \"{{$randomDateRecent}}\"\n}"
										},
										"url": {
											"raw": "{{baseUrl}}/accounts/:accountNumber/statement/date",
											"host": [
												"{{baseUrl}}"
											],
											"path": [
												"accounts",
												":accountNumber",
												"statement",
												"date"
											],
											"variable": [
												{
													"key": "accountNumber",
													"value": "anim cupidatat esse adipisicing",
													"description": "(Required) "
												}
											]
										},
										"description": "Date"
									},
									"response": [
										{
											"id": "854c9dee-cb1d-487d-85a3-9a7ff4cec81a",
											"name": "200 OK",
											"originalRequest": {
												"method": "GET",
												"header": [],
												"url": {
													"raw": "{{baseUrl}}/accounts/:accountNumber/statement/date",
													"host": [
														"{{baseUrl}}"
													],
													"path": [
														"accounts",
														":accountNumber",
														"statement",
														"date"
													],
													"variable": [
														{
															"key": "accountNumber",
															"value": "anim cupidatat esse adipisicing",
															"description": "(Required) "
														}
													]
												}
											},
											"status": "OK",
											"code": 200,
											"_postman_previewlanguage": "json",
											"header": [
												{
													"disabled": false,
													"key": "Access-Control-Allow-Origin",
													"value": "*",
													"description": ""
												},
												{
													"disabled": false,
													"key": "Connection",
													"value": "close",
													"description": ""
												},
												{
													"disabled": false,
													"key": "Content-Encoding",
													"value": "gzip",
													"description": ""
												},
												{
													"disabled": false,
													"key": "Date",
													"value": "Mon, 14 Jun 2021 14:30:25 GMT",
													"description": ""
												},
												{
													"disabled": false,
													"key": "ETag",
													"value": "W/\"96-S/5iQ2y1qqIInh5BwoPc+chvDJU\"",
													"description": ""
												},
												{
													"disabled": false,
													"key": "Server",
													"value": "nginx",
													"description": ""
												},
												{
													"disabled": false,
													"key": "Transfer-Encoding",
													"value": "chunked",
													"description": ""
												},
												{
													"disabled": false,
													"key": "Vary",
													"value": "Accept-Encoding",
													"description": ""
												},
												{
													"disabled": false,
													"key": "X-RateLimit-Limit",
													"value": "120",
													"description": ""
												},
												{
													"disabled": false,
													"key": "X-RateLimit-Remaining",
													"value": "119",
													"description": ""
												},
												{
													"disabled": false,
													"key": "X-RateLimit-Reset",
													"value": "1623681083",
													"description": ""
												},
												{
													"disabled": false,
													"key": "x-srv-span",
													"value": "v=1;s=210e5b055e5bd71e",
													"description": ""
												},
												{
													"disabled": false,
													"key": "x-srv-trace",
													"value": "v=1;t=d33d68b932344fce",
													"description": ""
												},
												{
													"key": "Content-Type",
													"name": "Content-Type",
													"value": "application/json",
													"description": "",
													"type": "text"
												}
											],
											"cookie": [],
											"body": "{\n    \"period\": {\n        \"from\": \"{{$randomDatePast}}\",\n        \"to\": \"{{$randomDateRecent}}\"\n    },\n    \"balance\": {\n        \"opening\": {{$randomPrice}},\n        \"closing\": {{$randomPrice}}\n    },\n    \"money\": {\n        \"in\": {{$randomPrice}},\n        \"out\": {{$randomPrice}}\n    },\n    \"transactions\": [\n        {\n            \"date\": \"{{$randomDateRecent}}\",\n            \"description\": \"{{$randomCompanyName}}\",\n            \"type\": \"{{$randomTransactionType}}\",\n            \"amount\": {{$randomPrice}},\n            \"balance\": {{$randomPrice}}\n        },\n        {\n            \"date\": \"{{$randomDateRecent}}\",\n            \"description\": \"{{$randomCompanyName}}\",\n            \"type\": \"{{$randomTransactionType}}\",\n            \"amount\": {{$randomPrice}},\n            \"balance\": {{$randomPrice}}\n        },\n        {\n            \"date\": \"{{$randomDateRecent}}\",\n            \"description\": \"{{$randomCompanyName}}\",\n            \"type\": \"{{$randomTransactionType}}\",\n            \"amount\": {{$randomPrice}},\n            \"balance\": {{$randomPrice}}\n        },\n        {\n            \"date\": \"{{$randomDateRecent}}\",\n            \"description\": \"{{$randomCompanyName}}\",\n            \"type\": \"{{$randomTransactionType}}\",\n            \"amount\": {{$randomPrice}},\n            \"balance\": {{$randomPrice}}\n        },\n        {\n            \"date\": \"{{$randomDateRecent}}\",\n            \"description\": \"{{$randomCompanyName}}\",\n            \"type\": \"{{$randomTransactionType}}\",\n            \"amount\": {{$randomPrice}},\n            \"balance\": {{$randomPrice}}\n        },\n        {\n            \"date\": \"{{$randomDateRecent}}\",\n            \"description\": \"{{$randomCompanyName}}\",\n            \"type\": \"{{$randomTransactionType}}\",\n            \"amount\": {{$randomPrice}},\n            \"balance\": {{$randomPrice}}\n        },\n        {\n            \"date\": \"{{$randomDateRecent}}\",\n            \"description\": \"{{$randomCompanyName}}\",\n            \"type\": \"{{$randomTransactionType}}\",\n            \"amount\": {{$randomPrice}},\n            \"balance\": {{$randomPrice}}\n        },\n        {\n            \"date\": \"{{$randomDateRecent}}\",\n            \"description\": \"{{$randomCompanyName}}\",\n            \"type\": \"{{$randomTransactionType}}\",\n            \"amount\": {{$randomPrice}},\n            \"balance\": {{$randomPrice}}\n        },\n        {\n            \"date\": \"{{$randomDateRecent}}\",\n            \"description\": \"{{$randomCompanyName}}\",\n            \"type\": \"{{$randomTransactionType}}\",\n            \"amount\": {{$randomPrice}},\n            \"balance\": {{$randomPrice}}\n        },\n        {\n            \"date\": \"{{$randomDateRecent}}\",\n            \"description\": \"{{$randomCompanyName}}\",\n            \"type\": \"{{$randomTransactionType}}\",\n            \"amount\": {{$randomPrice}},\n            \"balance\": {{$randomPrice}}\n        }\n    ]\n}"
										}
									]
								},
								{
									"name": "Latest",
									"event": [
										{
											"listen": "test",
											"script": {
												"id": "8e73cddc-f9cc-4c86-ba3e-426298337d38",
												"exec": [
													"pm.test(\"Status code is 200\", function () {",
													"    pm.response.to.have.status(200);",
													"});",
													"pm.test(\"Response time is less than 5000ms\", function () {",
													"    pm.expect(pm.response.responseTime).to.be.below(5000);",
													"});"
												],
												"type": "text/javascript"
											}
										}
									],
									"id": "6e3dabab-7f55-40be-bfd0-83bb4419ba58",
									"protocolProfileBehavior": {
										"disableBodyPruning": true
									},
									"request": {
										"method": "GET",
										"header": [],
										"url": {
											"raw": "{{baseUrl}}/accounts/:accountNumber/statement/latest",
											"host": [
												"{{baseUrl}}"
											],
											"path": [
												"accounts",
												":accountNumber",
												"statement",
												"latest"
											],
											"variable": [
												{
													"key": "accountNumber",
													"value": "anim cupidatat esse adipisicing",
													"description": "(Required) "
												}
											]
										},
										"description": "Latest"
									},
									"response": [
										{
											"id": "1f36df54-d125-4bdf-a442-b1ea54d7ee0e",
											"name": "Untitled Example",
											"originalRequest": {
												"method": "GET",
												"header": [],
												"url": {
													"raw": "{{baseUrl}}/accounts/:accountNumber/statement/latest",
													"host": [
														"{{baseUrl}}"
													],
													"path": [
														"accounts",
														":accountNumber",
														"statement",
														"latest"
													],
													"variable": [
														{
															"key": "accountNumber",
															"value": "anim cupidatat esse adipisicing",
															"description": "(Required) "
														}
													]
												}
											},
											"status": "OK",
											"code": 200,
											"_postman_previewlanguage": "text",
											"header": [
												{
													"key": "Content-Type",
													"value": "text/plain"
												}
											],
											"cookie": [],
											"body": ""
										}
									]
								}
							],
							"id": "488fb831-45db-4f71-a48f-e8f55d733d74"
						},
						{
							"name": "Overview",
							"event": [
								{
									"listen": "test",
									"script": {
										"id": "da54f262-884a-420b-8c17-b44a326ab80a",
										"exec": [
											"pm.test(\"Status code is 200\", function () {",
											"    pm.response.to.have.status(200);",
											"});"
										],
										"type": "text/javascript"
									}
								}
							],
							"id": "ea48f76c-182a-453f-9e2b-468ead1fece4",
							"protocolProfileBehavior": {
								"disableBodyPruning": true
							},
							"request": {
								"method": "GET",
								"header": [],
								"url": {
									"raw": "{{baseUrl}}/accounts/:accountNumber/overview",
									"host": [
										"{{baseUrl}}"
									],
									"path": [
										"accounts",
										":accountNumber",
										"overview"
									],
									"variable": [
										{
											"key": "accountNumber",
											"value": "anim cupidatat esse adipisicing",
											"description": "(Required) "
										}
									]
								},
								"description": "Overview"
							},
							"response": [
								{
									"id": "b623253c-6e48-4ea8-9e54-ea46a9997a6f",
									"name": "Untitled Example",
									"originalRequest": {
										"method": "GET",
										"header": [],
										"url": {
											"raw": "{{baseUrl}}/accounts/:accountNumber/overview",
											"host": [
												"{{baseUrl}}"
											],
											"path": [
												"accounts",
												":accountNumber",
												"overview"
											],
											"variable": [
												{
													"key": "accountNumber",
													"value": "anim cupidatat esse adipisicing",
													"description": "(Required) "
												}
											]
										}
									},
									"status": "OK",
									"code": 200,
									"_postman_previewlanguage": "text",
									"header": [
										{
											"key": "Content-Type",
											"value": "text/plain"
										}
									],
									"cookie": [],
									"body": ""
								}
							]
						}
					],
					"id": "8ae312cd-5db9-4a30-a613-5c57cc5f3eba"
				},
				{
					"name": "Create",
					"id": "9e2ccddd-c9f3-4c4b-8c61-2fdd3aec821c",
					"protocolProfileBehavior": {
						"disableBodyPruning": true
					},
					"request": {
						"method": "POST",
						"header": [
							{
								"key": "Content-Type",
								"value": "application/json"
							}
						],
						"body": {
							"mode": "raw",
							"raw": "{\n  \"holder\": \"{{customerId}}\",\n  \"type\": \"{{$randomBankAccountName}}\"\n}",
							"options": {
								"raw": {
									"language": "json"
								}
							}
						},
						"url": {
							"raw": "{{baseUrl}}/accounts/create",
							"host": [
								"{{baseUrl}}"
							],
							"path": [
								"accounts",
								"create"
							]
						},
						"description": "Create"
					},
					"response": [
						{
							"id": "cc4b845d-4db1-44c3-b194-78bcea4310f4",
							"name": "Untitled Example",
							"originalRequest": {
								"method": "POST",
								"header": [],
								"body": {
									"mode": "raw",
									"raw": "{\n  \"holder\": \"{{customerId}}\",\n  \"type\": \"{{$randomBankAccountName}}\"\n}",
									"options": {
										"raw": {
											"language": "json"
										}
									}
								},
								"url": {
									"raw": "{{baseUrl}}/accounts/create",
									"host": [
										"{{baseUrl}}"
									],
									"path": [
										"accounts",
										"create"
									]
								}
							},
							"status": "OK",
							"code": 200,
							"_postman_previewlanguage": "text",
							"header": [
								{
									"key": "Content-Type",
									"value": "text/plain"
								}
							],
							"cookie": [],
							"body": ""
						}
					]
				}
			],
			"id": "92f1457e-a77b-4c87-a4f4-47a1d578126d"
		}
	],
	"variable": [
		{
			"id": "e3533017-bb1b-4820-99ae-c1138053daf0",
			"key": "baseUrl",
			"value": "{{url}}",
			"type": "string"
		}
	]
}